<svg xmlns="http://www.w3.org/2000/svg" width="14" height="16" viewBox="0 0 14 16">
    <path fill="#1B1B1B" fill-rule="nonzero" d="M14 6.877v7.934h-2.924l-.178-1.419c-1.057 1.22-2.594 1.87-4.17 1.763a6.97 6.97 0 0 1-2.542-.458 6.527 6.527 0 0 1-2.136-1.35 6.191 6.191 0 0 1-1.492-2.309 9.134 9.134 0 0 1-.55-3.262 7.99 7.99 0 0 1 1.966-5.625C3.364.687 5.287-.093 7.262.01a6.92 6.92 0 0 1 4.373 1.384A5.961 5.961 0 0 1 13.83 5.35H9.517c-.23-1.127-1.227-1.903-2.331-1.816a2.152 2.152 0 0 0-1.975 1.129 6.159 6.159 0 0 0-.66 3.094c0 2.604.968 3.906 2.906 3.906a2.574 2.574 0 0 0 1.441-.476c.42-.267.725-.694.847-1.19H7.78V6.877H14z"/>
</svg>
